%YAML 1.1
%TAG !u! tag:unity3d.com,2011:
--- !u!221 &22100000
AnimatorOverrideController:
  m_ObjectHideFlags: 0
  m_PrefabParentObject: {fileID: 0}
  m_PrefabInternal: {fileID: 0}
  m_Name: Elizabeth
  m_Controller: {fileID: 9100000, guid: fe3a175e04f9d2540b6d99fe7aaeabb9, type: 2}
  m_Clips:
  - m_OriginalClip: {fileID: 7400000, guid: e710f9c369abf274384a51b383a94a33, type: 2}
    m_OverrideClip: {fileID: 7400000, guid: 594538e08d6d7a040ae6991503d800b0, type: 2}
  - m_OriginalClip: {fileID: 7400000, guid: fc51983222352484d84048dc3634dde1, type: 2}
    m_OverrideClip: {fileID: 7400000, guid: abd3b34b8521076408e1800e0511ade1, type: 2}
  - m_OriginalClip: {fileID: 7400000, guid: c3a1ef9a7d4df844aaa7f1c8c3560c86, type: 2}
    m_OverrideClip: {fileID: 7400000, guid: abd3b34b8521076408e1800e0511ade1, type: 2}
  - m_OriginalClip: {fileID: 7400000, guid: c195e3572392e384089f5904e75ee4d9, type: 2}
    m_OverrideClip: {fileID: 7400000, guid: 3e172d11773a8ff49b7175d3db626511, type: 2}
  - m_OriginalClip: {fileID: 7400000, guid: fb59cd0511c9d90448349c9638339c75, type: 2}
    m_OverrideClip: {fileID: 7400000, guid: 2b2879580572d7b4598e6c74f3ab0027, type: 2}
  - m_OriginalClip: {fileID: 7400000, guid: 01915da4cc8eeee49a1766d1c8461620, type: 2}
    m_OverrideClip: {fileID: 7400000, guid: b259211048c5ad849bb6fec7236d33de, type: 2}
  - m_OriginalClip: {fileID: 7400000, guid: d7f47c7b42dd9584eabf7d2c8d75152d, type: 2}
    m_OverrideClip: {fileID: 7400000, guid: 826857650cd4fc240a79901b9dc3def3, type: 2}
  - m_OriginalClip: {fileID: 7400000, guid: 3ce19641cb43eb847b988c825e8502f2, type: 2}
    m_OverrideClip: {fileID: 7400000, guid: c7cd690fbf2712242a99249328ae8aa8, type: 2}
  - m_OriginalClip: {fileID: 7400000, guid: d76b1e83b22ee3d4f92e56036a8a25fa, type: 2}
    m_OverrideClip: {fileID: 7400000, guid: 2b2879580572d7b4598e6c74f3ab0027, type: 2}
  - m_OriginalClip: {fileID: 7400000, guid: e8d133433ab4c834b9d1e1a511f5f15f, type: 2}
    m_OverrideClip: {fileID: 7400000, guid: abd3b34b8521076408e1800e0511ade1, type: 2}
  - m_OriginalClip: {fileID: 7400000, guid: f5b55e28e508f7c4299966664794a47d, type: 2}
    m_OverrideClip: {fileID: 7400000, guid: abd3b34b8521076408e1800e0511ade1, type: 2}
  - m_OriginalClip: {fileID: 7400000, guid: 40f6698cce00d3446a6578e40031447a, type: 2}
    m_OverrideClip: {fileID: 7400000, guid: fe0a833b9a575874ba3db925a08ae372, type: 2}
  - m_OriginalClip: {fileID: 7400000, guid: 01c5f7a4e7fb6b447b6b89e05a337305, type: 2}
    m_OverrideClip: {fileID: 7400000, guid: 826857650cd4fc240a79901b9dc3def3, type: 2}
