%YAML 1.1
%TAG !u! tag:unity3d.com,2011:
--- !u!13 &1
InputManager:
  m_ObjectHideFlags: 0
  serializedVersion: 2
  m_Axes:
  - serializedVersion: 3
    m_Name: Horizontal1
    descriptiveName: Player 1 Horizontal Axis
    descriptiveNegativeName: 
    negativeButton: 
    positiveButton: 
    altNegativeButton: 
    altPositiveButton: 
    gravity: 3
    dead: 0.3
    sensitivity: 3
    snap: 1
    invert: 0
    type: 2
    axis: 0
    joyNum: 1
  - serializedVersion: 3
    m_Name: Horizontal1
    descriptiveName: Player 1 Horizontal Axis (Keyboard)
    descriptiveNegativeName: 
    negativeButton: a
    positiveButton: d
    altNegativeButton: left
    altPositiveButton: right
    gravity: 3
    dead: 0.001
    sensitivity: 1000
    snap: 1
    invert: 0
    type: 0
    axis: 0
    joyNum: 1
  - serializedVersion: 3
    m_Name: Horizontal2
    descriptiveName: Player 2 Horizontal Axis
    descriptiveNegativeName: 
    negativeButton: 
    positiveButton: 
    altNegativeButton: 
    altPositiveButton: 
    gravity: 3
    dead: 0.3
    sensitivity: 3
    snap: 1
    invert: 0
    type: 2
    axis: 0
    joyNum: 2
  - serializedVersion: 3
    m_Name: Horizontal2
    descriptiveName: Player 2 Horizontal Axis (Keyboard)
    descriptiveNegativeName: 
    negativeButton: 
    positiveButton: 
    altNegativeButton: 
    altPositiveButton: 
    gravity: 3
    dead: 0.3
    sensitivity: 1000
    snap: 1
    invert: 0
    type: 0
    axis: 0
    joyNum: 2
  - serializedVersion: 3
    m_Name: Horizontal3
    descriptiveName: Player 3 Horizontal Axis
    descriptiveNegativeName: 
    negativeButton: 
    positiveButton: 
    altNegativeButton: 
    altPositiveButton: 
    gravity: 3
    dead: 0.3
    sensitivity: 3
    snap: 1
    invert: 0
    type: 2
    axis: 0
    joyNum: 3
  - serializedVersion: 3
    m_Name: Horizontal3
    descriptiveName: Player 3 Horizontal Axis (Keyboard)
    descriptiveNegativeName: 
    negativeButton: 
    positiveButton: 
    altNegativeButton: 
    altPositiveButton: 
    gravity: 3
    dead: 0.001
    sensitivity: 1000
    snap: 1
    invert: 0
    type: 0
    axis: 0
    joyNum: 3
  - serializedVersion: 3
    m_Name: Horizontal4
    descriptiveName: Player 4 Horizontal Axis
    descriptiveNegativeName: 
    negativeButton: 
    positiveButton: 
    altNegativeButton: 
    altPositiveButton: 
    gravity: 3
    dead: 0.3
    sensitivity: 3
    snap: 1
    invert: 0
    type: 2
    axis: 0
    joyNum: 4
  - serializedVersion: 3
    m_Name: Horizontal4
    descriptiveName: Player 4 Horizontal Axis (Keyboard)
    descriptiveNegativeName: 
    negativeButton: 
    positiveButton: 
    altNegativeButton: 
    altPositiveButton: 
    gravity: 3
    dead: 0.001
    sensitivity: 1000
    snap: 1
    invert: 0
    type: 0
    axis: 0
    joyNum: 4
  - serializedVersion: 3
    m_Name: Horizontal5
    descriptiveName: Player 5 Horizontal Axis
    descriptiveNegativeName: 
    negativeButton: 
    positiveButton: 
    altNegativeButton: 
    altPositiveButton: 
    gravity: 3
    dead: 0.3
    sensitivity: 3
    snap: 1
    invert: 0
    type: 2
    axis: 0
    joyNum: 5
  - serializedVersion: 3
    m_Name: Horizontal5
    descriptiveName: Player 5 Horizontal Axis (Keyboard)
    descriptiveNegativeName: 
    negativeButton: 
    positiveButton: 
    altNegativeButton: 
    altPositiveButton: 
    gravity: 3
    dead: 0.001
    sensitivity: 1000
    snap: 1
    invert: 0
    type: 0
    axis: 0
    joyNum: 5
  - serializedVersion: 3
    m_Name: Horizontal6
    descriptiveName: Player 6 Horizontal Axis
    descriptiveNegativeName: 
    negativeButton: 
    positiveButton: 
    altNegativeButton: 
    altPositiveButton: 
    gravity: 3
    dead: 0.3
    sensitivity: 3
    snap: 1
    invert: 0
    type: 2
    axis: 0
    joyNum: 6
  - serializedVersion: 3
    m_Name: Horizontal6
    descriptiveName: Player 6 Horizontal Axis (Keyboard)
    descriptiveNegativeName: 
    negativeButton: 
    positiveButton: 
    altNegativeButton: 
    altPositiveButton: 
    gravity: 3
    dead: 0.001
    sensitivity: 1000
    snap: 1
    invert: 0
    type: 0
    axis: 0
    joyNum: 6
  - serializedVersion: 3
    m_Name: Horizontal7
    descriptiveName: Player 7 Horizontal Axis
    descriptiveNegativeName: 
    negativeButton: 
    positiveButton: 
    altNegativeButton: 
    altPositiveButton: 
    gravity: 3
    dead: 0.3
    sensitivity: 3
    snap: 1
    invert: 0
    type: 2
    axis: 0
    joyNum: 7
  - serializedVersion: 3
    m_Name: Horizontal7
    descriptiveName: Player 7 Horizontal Axis (Keyboard)
    descriptiveNegativeName: 
    negativeButton: 
    positiveButton: 
    altNegativeButton: 
    altPositiveButton: 
    gravity: 3
    dead: 0.001
    sensitivity: 1000
    snap: 1
    invert: 0
    type: 0
    axis: 0
    joyNum: 7
  - serializedVersion: 3
    m_Name: Horizontal8
    descriptiveName: Player 8 Horizontal Axis
    descriptiveNegativeName: 
    negativeButton: 
    positiveButton: 
    altNegativeButton: 
    altPositiveButton: 
    gravity: 3
    dead: 0.3
    sensitivity: 3
    snap: 1
    invert: 0
    type: 2
    axis: 0
    joyNum: 8
  - serializedVersion: 3
    m_Name: Horizontal8
    descriptiveName: Player 8 Horizontal Axis (Keyboard)
    descriptiveNegativeName: 
    negativeButton: 
    positiveButton: 
    altNegativeButton: 
    altPositiveButton: 
    gravity: 3
    dead: 0.001
    sensitivity: 1000
    snap: 1
    invert: 0
    type: 0
    axis: 0
    joyNum: 8
  - serializedVersion: 3
    m_Name: Vertical1
    descriptiveName: Player 1 Vertical Axis
    descriptiveNegativeName: 
    negativeButton: 
    positiveButton: 
    altNegativeButton: 
    altPositiveButton: 
    gravity: 3
    dead: 0.3
    sensitivity: 3
    snap: 1
    invert: 1
    type: 2
    axis: 1
    joyNum: 1
  - serializedVersion: 3
    m_Name: Vertical1
    descriptiveName: Player 1 Vertical Axis (Keyboard)
    descriptiveNegativeName: 
    negativeButton: s
    positiveButton: w
    altNegativeButton: down
    altPositiveButton: up
    gravity: 3
    dead: 0.001
    sensitivity: 1000
    snap: 1
    invert: 0
    type: 0
    axis: 1
    joyNum: 1
  - serializedVersion: 3
    m_Name: Vertical2
    descriptiveName: Player 2 Vertical Axis
    descriptiveNegativeName: 
    negativeButton: 
    positiveButton: 
    altNegativeButton: 
    altPositiveButton: 
    gravity: 3
    dead: 0.3
    sensitivity: 3
    snap: 1
    invert: 1
    type: 2
    axis: 1
    joyNum: 2
  - serializedVersion: 3
    m_Name: Vertical2
    descriptiveName: Player 2 Vertical Axis (Keyboard)
    descriptiveNegativeName: 
    negativeButton: 
    positiveButton: 
    altNegativeButton: 
    altPositiveButton: 
    gravity: 3
    dead: 0.001
    sensitivity: 1000
    snap: 1
    invert: 0
    type: 0
    axis: 1
    joyNum: 2
  - serializedVersion: 3
    m_Name: Vertical3
    descriptiveName: Player 3 Vertical Axis
    descriptiveNegativeName: 
    negativeButton: 
    positiveButton: 
    altNegativeButton: 
    altPositiveButton: 
    gravity: 3
    dead: 0.3
    sensitivity: 3
    snap: 1
    invert: 1
    type: 2
    axis: 1
    joyNum: 3
  - serializedVersion: 3
    m_Name: Vertical3
    descriptiveName: Player 3 Vertical Axis (Keyboard)
    descriptiveNegativeName: 
    negativeButton: 
    positiveButton: 
    altNegativeButton: 
    altPositiveButton: 
    gravity: 3
    dead: 0.001
    sensitivity: 1000
    snap: 1
    invert: 0
    type: 0
    axis: 1
    joyNum: 3
  - serializedVersion: 3
    m_Name: Vertical4
    descriptiveName: Player 4 Vertical Axis
    descriptiveNegativeName: 
    negativeButton: 
    positiveButton: 
    altNegativeButton: 
    altPositiveButton: 
    gravity: 3
    dead: 0.3
    sensitivity: 3
    snap: 1
    invert: 1
    type: 2
    axis: 1
    joyNum: 4
  - serializedVersion: 3
    m_Name: Vertical4
    descriptiveName: Player 4 Vertical Axis (Keyboard)
    descriptiveNegativeName: 
    negativeButton: 
    positiveButton: 
    altNegativeButton: 
    altPositiveButton: 
    gravity: 3
    dead: 0.001
    sensitivity: 1000
    snap: 1
    invert: 0
    type: 0
    axis: 1
    joyNum: 4
  - serializedVersion: 3
    m_Name: Vertical5
    descriptiveName: Player 5 Vertical Axis
    descriptiveNegativeName: 
    negativeButton: 
    positiveButton: 
    altNegativeButton: 
    altPositiveButton: 
    gravity: 3
    dead: 0.3
    sensitivity: 3
    snap: 1
    invert: 1
    type: 2
    axis: 1
    joyNum: 5
  - serializedVersion: 3
    m_Name: Vertical5
    descriptiveName: Player 5 Vertical Axis (Keyboard)
    descriptiveNegativeName: 
    negativeButton: 
    positiveButton: 
    altNegativeButton: 
    altPositiveButton: 
    gravity: 3
    dead: 0.001
    sensitivity: 1000
    snap: 1
    invert: 0
    type: 0
    axis: 1
    joyNum: 5
  - serializedVersion: 3
    m_Name: Vertical6
    descriptiveName: Player 6 Vertical Axis
    descriptiveNegativeName: 
    negativeButton: 
    positiveButton: 
    altNegativeButton: 
    altPositiveButton: 
    gravity: 3
    dead: 0.3
    sensitivity: 3
    snap: 1
    invert: 1
    type: 2
    axis: 1
    joyNum: 6
  - serializedVersion: 3
    m_Name: Vertical6
    descriptiveName: Player 6 Vertical Axis (Keyboard)
    descriptiveNegativeName: 
    negativeButton: 
    positiveButton: 
    altNegativeButton: 
    altPositiveButton: 
    gravity: 3
    dead: 0.001
    sensitivity: 1000
    snap: 1
    invert: 0
    type: 0
    axis: 1
    joyNum: 6
  - serializedVersion: 3
    m_Name: Vertical7
    descriptiveName: Player 7 Vertical Axis
    descriptiveNegativeName: 
    negativeButton: 
    positiveButton: 
    altNegativeButton: 
    altPositiveButton: 
    gravity: 3
    dead: 0.3
    sensitivity: 3
    snap: 1
    invert: 1
    type: 2
    axis: 1
    joyNum: 7
  - serializedVersion: 3
    m_Name: Vertical7
    descriptiveName: Player 7 Vertical Axis (Keyboard)
    descriptiveNegativeName: 
    negativeButton: 
    positiveButton: 
    altNegativeButton: 
    altPositiveButton: 
    gravity: 3
    dead: 0.001
    sensitivity: 1000
    snap: 1
    invert: 0
    type: 0
    axis: 1
    joyNum: 7
  - serializedVersion: 3
    m_Name: Vertical8
    descriptiveName: Player 8 Vertical Axis
    descriptiveNegativeName: 
    negativeButton: 
    positiveButton: 
    altNegativeButton: 
    altPositiveButton: 
    gravity: 3
    dead: 0.3
    sensitivity: 3
    snap: 1
    invert: 1
    type: 2
    axis: 1
    joyNum: 8
  - serializedVersion: 3
    m_Name: Vertical8
    descriptiveName: Player 8 Vertical Axis (Keyboard)
    descriptiveNegativeName: 
    negativeButton: 
    positiveButton: 
    altNegativeButton: 
    altPositiveButton: 
    gravity: 3
    dead: 0.001
    sensitivity: 1000
    snap: 1
    invert: 0
    type: 0
    axis: 1
    joyNum: 8
  - serializedVersion: 3
    m_Name: Action1
    descriptiveName: Player 1 Action Button
    descriptiveNegativeName: 
    negativeButton: 
    positiveButton: joystick 1 button 1
    altNegativeButton: 
    altPositiveButton: o
    gravity: 1000
    dead: 0.001
    sensitivity: 1000
    snap: 0
    invert: 0
    type: 0
    axis: 0
    joyNum: 1
  - serializedVersion: 3
    m_Name: Action2
    descriptiveName: Player 2 Action Button
    descriptiveNegativeName: 
    negativeButton: 
    positiveButton: joystick 2 button 1
    altNegativeButton: 
    altPositiveButton: 
    gravity: 1000
    dead: 0.001
    sensitivity: 1000
    snap: 0
    invert: 0
    type: 0
    axis: 0
    joyNum: 2
  - serializedVersion: 3
    m_Name: Action3
    descriptiveName: Player 3 Action Button
    descriptiveNegativeName: 
    negativeButton: 
    positiveButton: joystick 3 button 1
    altNegativeButton: 
    altPositiveButton: 
    gravity: 1000
    dead: 0.001
    sensitivity: 1000
    snap: 0
    invert: 0
    type: 0
    axis: 0
    joyNum: 3
  - serializedVersion: 3
    m_Name: Action4
    descriptiveName: Player 4 Action Button
    descriptiveNegativeName: 
    negativeButton: 
    positiveButton: joystick 4 button 1
    altNegativeButton: 
    altPositiveButton: 
    gravity: 1000
    dead: 0.001
    sensitivity: 1000
    snap: 0
    invert: 0
    type: 0
    axis: 0
    joyNum: 4
  - serializedVersion: 3
    m_Name: Action5
    descriptiveName: Player 5 Action Button
    descriptiveNegativeName: 
    negativeButton: 
    positiveButton: joystick 5 button 1
    altNegativeButton: 
    altPositiveButton: 
    gravity: 1000
    dead: 0.001
    sensitivity: 1000
    snap: 0
    invert: 0
    type: 0
    axis: 0
    joyNum: 5
  - serializedVersion: 3
    m_Name: Action6
    descriptiveName: Player 6 Action Button
    descriptiveNegativeName: 
    negativeButton: 
    positiveButton: joystick 6 button 1
    altNegativeButton: 
    altPositiveButton: 
    gravity: 1000
    dead: 0.001
    sensitivity: 1000
    snap: 0
    invert: 0
    type: 0
    axis: 0
    joyNum: 6
  - serializedVersion: 3
    m_Name: Action7
    descriptiveName: Player 7 Action Button
    descriptiveNegativeName: 
    negativeButton: 
    positiveButton: joystick 7 button 1
    altNegativeButton: 
    altPositiveButton: 
    gravity: 1000
    dead: 0.001
    sensitivity: 1000
    snap: 0
    invert: 0
    type: 0
    axis: 0
    joyNum: 7
  - serializedVersion: 3
    m_Name: Action8
    descriptiveName: Player 8 Action Button
    descriptiveNegativeName: 
    negativeButton: 
    positiveButton: joystick 8 button 1
    altNegativeButton: 
    altPositiveButton: 
    gravity: 1000
    dead: 0.001
    sensitivity: 1000
    snap: 0
    invert: 0
    type: 0
    axis: 0
    joyNum: 8
  - serializedVersion: 3
    m_Name: Jump1
    descriptiveName: Player 1 Jump Button
    descriptiveNegativeName: 
    negativeButton: 
    positiveButton: joystick 1 button 2
    altNegativeButton: 
    altPositiveButton: space
    gravity: 1000
    dead: 0.001
    sensitivity: 1000
    snap: 0
    invert: 0
    type: 0
    axis: 0
    joyNum: 1
  - serializedVersion: 3
    m_Name: Jump2
    descriptiveName: Player 2 Jump Button
    descriptiveNegativeName: 
    negativeButton: 
    positiveButton: joystick 2 button 2
    altNegativeButton: 
    altPositiveButton: 
    gravity: 1000
    dead: 0.001
    sensitivity: 1000
    snap: 0
    invert: 0
    type: 0
    axis: 0
    joyNum: 2
  - serializedVersion: 3
    m_Name: Jump3
    descriptiveName: Player 3 Jump Button
    descriptiveNegativeName: 
    negativeButton: 
    positiveButton: joystick 3 button 2
    altNegativeButton: 
    altPositiveButton: 
    gravity: 1000
    dead: 0.001
    sensitivity: 1000
    snap: 0
    invert: 0
    type: 0
    axis: 0
    joyNum: 3
  - serializedVersion: 3
    m_Name: Jump4
    descriptiveName: Player 4 Jump Button
    descriptiveNegativeName: 
    negativeButton: 
    positiveButton: joystick 4 button 2
    altNegativeButton: 
    altPositiveButton: 
    gravity: 1000
    dead: 0.001
    sensitivity: 1000
    snap: 0
    invert: 0
    type: 0
    axis: 0
    joyNum: 2
  - serializedVersion: 3
    m_Name: Jump5
    descriptiveName: Player 5 Jump Button
    descriptiveNegativeName: 
    negativeButton: 
    positiveButton: joystick 5 button 2
    altNegativeButton: 
    altPositiveButton: 
    gravity: 1000
    dead: 0.001
    sensitivity: 1000
    snap: 0
    invert: 0
    type: 0
    axis: 0
    joyNum: 2
  - serializedVersion: 3
    m_Name: Jump6
    descriptiveName: Player 6 Jump Button
    descriptiveNegativeName: 
    negativeButton: 
    positiveButton: joystick 6 button 2
    altNegativeButton: 
    altPositiveButton: 
    gravity: 1000
    dead: 0.001
    sensitivity: 1000
    snap: 0
    invert: 0
    type: 0
    axis: 0
    joyNum: 2
  - serializedVersion: 3
    m_Name: Jump7
    descriptiveName: Player 7 Jump Button
    descriptiveNegativeName: 
    negativeButton: 
    positiveButton: joystick 7 button 2
    altNegativeButton: 
    altPositiveButton: 
    gravity: 1000
    dead: 0.001
    sensitivity: 1000
    snap: 0
    invert: 0
    type: 0
    axis: 0
    joyNum: 2
  - serializedVersion: 3
    m_Name: Jump8
    descriptiveName: Player 8 Jump Button
    descriptiveNegativeName: 
    negativeButton: 
    positiveButton: joystick 8 button 2
    altNegativeButton: 
    altPositiveButton: 
    gravity: 1000
    dead: 0.001
    sensitivity: 1000
    snap: 0
    invert: 0
    type: 0
    axis: 0
    joyNum: 2
